<svg xmlns="http://www.w3.org/2000/svg" baseProfile="tiny" version="1.2" viewBox="0 0 106.1 132.7">
  <g fill="none" stroke="#4C4B4C" stroke-miterlimit="10">
    <path stroke-width="1.98" d="M1 1h104.1v130.7H1zM64.1 20.4h26.1M64.1 34.3h26.1M64.1 47.4h26.1M26.7 56.9h63.5M26.7 69.9h50.5M26.7 84.8h63.5M26.7 101h50.5M26.7 115h63.5"/>
    <circle cx="40.6" cy="26.7" r="9" stroke-width="1.98"/>
    <path stroke-width="1.98" d="M27.6 47.9c4.5-11.2 22.1-11.2 25.7 0"/>
    <circle cx="13.1" cy="11.2" r="1.9" stroke-width="1.42"/>
    <circle cx="13.1" cy="20.4" r="1.9" stroke-width="1.42"/>
    <circle cx="13.1" cy="29.5" r="1.9" stroke-width="1.42"/>
    <circle cx="13.1" cy="38.6" r="1.9" stroke-width="1.42"/>
    <circle cx="13.1" cy="47.7" r="1.9" stroke-width="1.42"/>
    <circle cx="13.1" cy="56.9" r="1.9" stroke-width="1.42"/>
    <circle cx="13.1" cy="66" r="1.9" stroke-width="1.42"/>
    <circle cx="13.1" cy="75.1" r="1.9" stroke-width="1.42"/>
    <circle cx="13.1" cy="84.2" r="1.9" stroke-width="1.42"/>
    <circle cx="13.1" cy="93.4" r="1.9" stroke-width="1.42"/>
    <circle cx="13.1" cy="102.5" r="1.9" stroke-width="1.42"/>
    <circle cx="13.1" cy="111.6" r="1.9" stroke-width="1.42"/>
    <circle cx="13.1" cy="120.8" r="1.9" stroke-width="1.42"/>
  </g>
</svg>
